7
50
0
0
NoTrap
0
1
0
NoTrap
0
2
0
NoTrap
0
3
0
NoTrap
0
4
0
NoTrap
0
5
0
NoTrap
0
6
0
NoTrap
0
7
0
NoTrap
0
8
0
NoTrap
0
8
-1
NoTrap
0
8
-2
NoTrap
0
9
-2
NoTrap
0
10
-2
NoTrap
0
11
-2
NoTrap
0
12
-2
NoTrap
0
13
-2
NoTrap
0
14
-2
NoTrap
0
14
-1
NoTrap
0
14
0
NoTrap
0
15
0
NoTrap
0
16
0
NoTrap
0
17
0
NoTrap
0
17
1
NoTrap
0
17
2
Ball
6
0
4
0
18
2
NoTrap
0
19
2
NoTrap
0
20
2
NoTrap
0
21
2
NoTrap
0
21
1
NoTrap
0
21
0
NoTrap
0
21
-1
NoTrap
0
22
-1
NoTrap
0
23
-1
NoTrap
0
23
0
NoTrap
0
23
1
NoTrap
0
23
2
NoTrap
0
24
2
NoTrap
0
25
2
NoTrap
0
26
2
NoTrap
0
27
2
NoTrap
0
28
2
NoTrap
0
29
2
NoTrap
0
30
2
NoTrap
0
31
2
NoTrap
0
32
2
NoTrap
0
32
1
NoTrap
0
32
0
NoTrap
0
32
-1
NoTrap
0
32
-2
NoTrap
0
32
-3
NoTrap
1
exit
15
23
3
NoTrap
0
23
4
NoTrap
0
23
5
NoTrap
0
24
5
NoTrap
0
25
5
NoTrap
0
26
5
NoTrap
0
27
5
NoTrap
0
28
5
NoTrap
0
29
5
NoTrap
0
30
5
NoTrap
0
31
5
NoTrap
0
32
5
NoTrap
0
33
5
NoTrap
0
34
5
NoTrap
0
34
4
NoTrap
0
16
18
0
NoTrap
0
19
0
NoTrap
0
19
-1
NoTrap
0
19
-2
NoTrap
0
19
-3
NoTrap
0
19
-4
NoTrap
0
19
-5
NoTrap
0
19
-6
NoTrap
0
19
-7
NoTrap
0
19
-8
Arrow
4
0
6
0
19
-9
NoTrap
0
19
-10
NoTrap
0
19
-11
NoTrap
0
19
-12
NoTrap
0
19
-13
NoTrap
0
19
-14
NoTrap
0
16
21
3
NoTrap
0
21
4
Stake
2
6
2
0
20
4
NoTrap
0
19
4
NoTrap
0
18
4
NoTrap
0
17
4
NoTrap
0
16
4
NoTrap
0
15
4
NoTrap
0
15
5
NoTrap
0
14
5
NoTrap
0
13
5
NoTrap
0
13
4
NoTrap
0
12
4
NoTrap
0
11
4
NoTrap
0
10
4
NoTrap
0
9
4
NoTrap
1
key
10
23
-2
NoTrap
0
23
-3
NoTrap
0
23
-4
NoTrap
0
23
-5
NoTrap
0
23
-6
NoTrap
0
22
-6
NoTrap
0
21
-6
NoTrap
0
21
-5
NoTrap
0
21
-4
NoTrap
0
21
-3
Ball
6
0
4
0
9
10
-1
NoTrap
0
10
0
NoTrap
0
10
1
Stake
2
6
2
0
10
2
NoTrap
0
11
2
NoTrap
0
12
2
NoTrap
0
13
2
NoTrap
0
14
2
NoTrap
0
15
2
NoTrap
0
17
13
-3
NoTrap
0
13
-4
NoTrap
0
13
-5
NoTrap
0
14
-5
NoTrap
0
15
-5
NoTrap
0
16
-5
NoTrap
0
16
-6
NoTrap
0
16
-7
NoTrap
0
16
-8
NoTrap
0
16
-9
NoTrap
0
16
-10
NoTrap
0
16
-11
NoTrap
0
16
-12
NoTrap
0
16
-13
NoTrap
0
16
-14
NoTrap
0
16
-15
NoTrap
0
16
-16
NoTrap
0
